…
With these steps complete, the designated countries within our shapefile
data are now as follows:

``` r
map_data_iso %>% distinct(country)
```

    ## # A tibble: 258 × 1
    ##    country            
    ##    <chr>              
    ##  1 Afghanistan        
    ##  2 Albania            
    ##  3 Algeria            
    ##  4 American Samoa     
    ##  5 Andorra            
    ##  6 Angola             
    ##  7 Anguilla           
    ##  8 Antarctica         
    ##  9 Antigua            
    ## 10 Antigua and Barbuda
    ## # … with 248 more rows
…
